<?xml version="1.0" encoding="UTF-8" standalone="no"?>
<!-- Created with Inkscape (http://www.inkscape.org/) -->

<svg
   width="512"
   height="256"
   viewBox="0 0 512 256"
   version="1.1"
   id="svg5"
   xml:space="preserve"
   sodipodi:docname="title.svg"
   inkscape:version="1.2.2 (b0a8486541, 2022-12-01)"
   xmlns:inkscape="http://www.inkscape.org/namespaces/inkscape"
   xmlns:sodipodi="http://sodipodi.sourceforge.net/DTD/sodipodi-0.dtd"
   xmlns="http://www.w3.org/2000/svg"
   xmlns:svg="http://www.w3.org/2000/svg"><sodipodi:namedview
     id="namedview7"
     pagecolor="#d1d1d1"
     bordercolor="#000000"
     borderopacity="0.42352941"
     inkscape:showpageshadow="false"
     inkscape:pageopacity="0"
     inkscape:pagecheckerboard="0"
     inkscape:deskcolor="#d1d1d1"
     inkscape:document-units="px"
     showgrid="false"
     inkscape:zoom="1.4142136"
     inkscape:cx="422.14275"
     inkscape:cy="120.20815"
     inkscape:window-width="1828"
     inkscape:window-height="1131"
     inkscape:window-x="0"
     inkscape:window-y="0"
     inkscape:window-maximized="1"
     inkscape:current-layer="layer1"><inkscape:grid
       type="xygrid"
       id="grid6661"
       spacingx="67.733332"
       spacingy="67.733332"
       originx="-127.249"
       originy="-112.02019" /></sodipodi:namedview><defs
     id="defs2"><inkscape:path-effect
       effect="powerstroke"
       id="path-effect14209"
       is_visible="true"
       lpeversion="1"
       offset_points="7.776013e-07,2.3911095e-05 | 0.52583767,5.7478299 | 1,0.00093731581 | 1,0.0016926001"
       not_jump="false"
       sort_points="true"
       interpolator_type="CentripetalCatmullRom"
       interpolator_beta="1"
       start_linecap_type="zerowidth"
       linejoin_type="miter"
       miter_limit="200"
       scale_width="1.5"
       end_linecap_type="zerowidth" /><inkscape:path-effect
       effect="taper_stroke"
       id="path-effect14207"
       is_visible="false"
       lpeversion="1"
       stroke_width="32"
       attach_start="0.5"
       end_offset="0.5"
       start_smoothing="0.5"
       end_smoothing="0.5"
       jointype="extrapolated"
       start_shape="center"
       end_shape="center"
       miter_limit="100" /></defs><g
     inkscape:label="Layer 1"
     inkscape:groupmode="layer"
     id="layer1"
     transform="translate(-33.667969,-29.638672)"><path
       style="fill:#15539e;fill-opacity:1;fill-rule:nonzero;stroke:none;stroke-width:10.3816;stroke-linecap:round;stroke-linejoin:bevel;stroke-dasharray:none;stroke-opacity:1"
       d="m 517.44777,161.63867 c 0,-1e-5 -10e-6,-2e-5 -2e-5,-3e-5 -0.0586,0.0309 -9.50543,5.34418 -24.07612,11.98579 -14.98196,6.82906 -33.66808,14.11821 -53.78386,18.49623 -20.694,4.50384 -40.09337,5.34146 -58.79349,2.35793 -17.07112,-2.72362 -32.13583,-8.39174 -46.27237,-15.41854 -14.80683,-7.35997 -29.79298,-16.93154 -41.57528,-24.1328 -3.02038,-1.84604 -5.87947,-3.5739 -8.68385,-5.22865 -9.62871,-5.6815 -21.98597,-12.51082 -35.25962,-18.09439 -15.28776,-6.43081 -32.06468,-11.37515 -50.85875,-12.82441 -20.03531,-1.54498 -40.14121,1.0549 -60.84701,7.25299 -19.78853,5.92351 -37.904347,14.49265 -52.263427,22.21542 -14.016575,7.53857 -23.08044,13.38977 -23.146507,13.38924 9.15e-4,0.002 0.002,0.003 0.002,0.003 0.03201,-0.0585 9.462645,-5.3454 23.902837,-11.85679 14.879725,-6.70959 33.263865,-13.74141 53.001005,-17.8752 20.59804,-4.3141 39.6866,-4.87303 57.96654,-1.75414 17.05229,2.90944 31.96349,8.76578 45.7151,15.66639 11.86179,5.9523 23.63192,13.1282 32.99138,18.70851 2.68721,1.60218 5.67165,3.37344 8.66067,5.12663 11.99172,7.03366 27.79272,16.05279 44.30298,22.86207 15.68685,6.46968 32.48938,11.22487 51.14989,12.58246 20.32781,1.4789 40.64944,-1.2447 61.43406,-7.46555 20.15953,-6.03376 38.60254,-14.73971 53.10153,-22.50906 14.17773,-7.5972 23.27627,-13.45218 23.33181,-13.48717 z"
       id="path12810-3-7"
       sodipodi:nodetypes="cc"
       inkscape:original-d="m 517.44777,161.63867 c -233.44116,134.77732 -225.1349,-133.035756 -455.559601,0"
       inkscape:path-effect="#path-effect14209" /><path
       style="fill:none;fill-opacity:1;stroke:none;stroke-width:32;stroke-linecap:round;stroke-linejoin:round;stroke-dasharray:none;stroke-opacity:1;fill-rule:nonzero"
       d="m 517.44777,161.63867 c -233.44116,134.77732 -225.1349,-133.035756 -455.559601,0"
       id="path12810-3-7-6"
       sodipodi:nodetypes="cc" /><path
       id="path3656"
       style="color:#000000;mix-blend-mode:normal;fill:#ffffff;stroke:none;stroke-width:13.1274;stroke-linecap:round;stroke-dasharray:none;stroke-opacity:1;paint-order:stroke fill markers"
       d="m 377.16714,122.53364 c -9.19962,0.0262 -18.38914,3.55001 -25.40417,10.57306 -13.82019,13.82017 -14.08743,36.04877 -0.80508,50.19623 0.19226,0.29491 0.41749,0.57517 0.67624,0.83392 7.06369,7.06368 16.32385,10.58636 25.57917,10.56984 9.25542,0.0157 18.51614,-3.50617 25.57981,-10.56984 0.17971,-0.2113 0.36459,-0.43038 0.5474,-0.64548 l 2.01269,7.35595 a 5.2509559,5.2509559 0 0 0 6.44895,3.67989 5.2509559,5.2509559 0 0 0 3.67992,-6.44895 l -6.56241,-23.99593 a 5.2509559,5.2509559 0 0 0 -6.45154,-3.68054 5.2509559,5.2509559 0 0 0 -3.67987,6.45151 l 1.07106,3.91579 c -1.16302,2.19009 -2.65067,4.24545 -4.47598,6.07076 -5.01939,5.01939 -11.59267,7.53523 -18.17003,7.54953 -6.57739,-0.0137 -13.14998,-2.53014 -18.16937,-7.54953 -10.06746,-10.06745 -10.06746,-26.38475 0,-36.4522 10.01916,-10.01913 26.20708,-10.06789 36.29068,-0.16152 l -6.6201,6.63677 c -1.11145,1.11145 -1.43374,2.77053 -0.83777,4.22025 0.59598,1.4497 2.01358,2.38382 3.57606,2.38382 h 19.24945 1.36913 c 2.14232,0 3.86579,-1.72343 3.86579,-3.86578 v -20.61795 c 0,-1.56247 -0.93417,-2.98007 -2.38384,-3.57606 -1.44973,-0.596 -3.10942,-0.27432 -4.22089,0.83713 l -6.70085,6.7015 c -7.05527,-6.96668 -16.26481,-10.43834 -25.46445,-10.41217 z" /><path
       id="path322-7"
       style="fill:#ffffff;fill-opacity:1;stroke:none;stroke-width:13.1273;stroke-dasharray:none;stroke-opacity:1;paint-order:stroke fill markers"
       d="m 198.38876,131.59605 c -1.32086,0 -2.64175,0.50341 -3.64849,1.51016 -14.09445,14.09443 -14.09445,36.93507 0,51.0295 7.05091,7.05093 16.29109,10.57231 25.73712,10.57168 9.44606,-6.2e-4 18.68576,-3.52082 25.7366,-10.57168 14.09445,-14.09443 14.09445,-36.93507 0,-51.0295 -2.01348,-2.01351 -5.28348,-2.01351 -7.29697,0 -2.0135,2.01349 -2.0135,5.2835 0,7.29699 10.06746,10.06745 10.06748,26.38473 0,36.45219 -5.04441,5.04445 -11.82621,7.55961 -18.4399,7.5489 -6.61353,0.01 -13.39557,-2.50457 -18.43988,-7.5489 -10.06746,-10.06746 -10.06746,-26.38474 0,-36.45219 2.0135,-2.01349 2.0135,-5.2835 0,-7.29699 -1.00674,-1.00675 -2.32763,-1.51016 -3.64848,-1.51016 z"
       sodipodi:nodetypes="scscssscscssss" /><path
       id="path322-7-3"
       style="fill:#ffffff;fill-opacity:1;stroke:none;stroke-width:13.1273;stroke-dasharray:none;stroke-opacity:1;paint-order:stroke fill markers"
       d="m 294.8382,122.092 c -9.23376,0 -18.46785,3.52392 -25.51506,10.57114 -0.28204,0.28203 -0.52001,0.59025 -0.72303,0.91468 a 5.2509559,5.2509559 0 0 0 -1.54671,3.69272 v 74.7793 a 5.2509559,5.2509559 0 0 0 5.24968,5.24967 5.2509559,5.2509559 0 0 0 5.25222,-5.24967 v -21.74416 c 13.6936,7.47927 31.20379,5.4247 42.79733,-6.16883 7.05094,-7.05092 10.57241,-16.29148 10.57179,-25.7375 -6.3e-4,-9.44603 -3.52093,-18.68539 -10.57179,-25.73621 C 313.30541,125.61592 304.07196,122.092 294.8382,122.092 Z m 0.008,10.31731 c 6.59617,-1e-5 13.19203,2.51708 18.22578,7.55081 5.0444,5.04441 7.55959,11.8262 7.54888,18.43987 0.01,6.61354 -2.50458,13.39558 -7.54888,18.43986 -9.76161,9.76159 -25.39839,10.05746 -35.51702,0.88907 v -38.65849 c 4.90078,-4.44056 11.09586,-6.66112 17.29124,-6.66112 z" /><g
       id="path4060"
       transform="matrix(1.2403828,0,0,1.2403828,121.63761,69.214536)"
       style="stroke:none;stroke-width:10.5833;stroke-dasharray:none;stroke-opacity:1;paint-order:stroke fill markers"><path
         style="color:#000000;fill:#ffffff;stroke:none;stroke-width:10.5833;stroke-linecap:round;stroke-dasharray:none;stroke-opacity:1;paint-order:stroke fill markers"
         d="M 37.901703,33.871071 V 96.93935"
         id="path3643" /><path
         style="color:#000000;fill:#ffffff;stroke:none;stroke-width:10.5833;stroke-linecap:round;stroke-dasharray:none;stroke-opacity:1;paint-order:stroke fill markers"
         d="m 37.902344,29.638672 a 4.233335,4.233335 0 0 0 -4.234375,4.232422 v 63.068359 a 4.233335,4.233335 0 0 0 4.234375,4.232427 4.233335,4.233335 0 0 0 4.232422,-4.232427 V 33.871094 a 4.233335,4.233335 0 0 0 -4.232422,-4.232422 z"
         id="path3645" /></g></g></svg>
